;###001 - THIS LINE CONTAINS VERSION INFORMATION. DO NOT REMOVE!!!

;Tag Name, Expression, Description, DerivedTag File Name

"Skid_Counters\Vagas_SOut_EL"," If (Skid_Counters\EL_SOUT_QTD_MAX)-(PLC_H\STRIPOUTELPO_CC+PLC_H\skidsbeforestripout_sbee)<0 Then  ((Skid_Counters\EL_SOUT_QTD_MAX)-(PLC_H\STRIPOUTELPO_CC+PLC_H\skidsbeforestripout_sbee)) = 0  Else ((Skid_Counters\EL_SOUT_QTD_MAX)-(PLC_H\STRIPOUTELPO_CC+PLC_H\skidsbeforestripout_sbee))","","VAGAS_SOut_ELPO"
"PLC_A\ROS_9100\PRT1060_SAL","speed\A1060Setpoint <> 52","","VELOCIDADES_AL"
"PLC_A\ROS_9101\PEND1100_SAL","speed\A1100Setpoint <> 52","","VELOCIDADES_AL"
"PLC_A\ROS_9200\PEND1160_SAL","speed\A1160Setpoint <> 53","","VELOCIDADES_AL"
"PLC_B\ROS_9001\TS1251_SAL","speed\B1251Setpoint <> 27","","VELOCIDADES_AL"
"PLC_B\ROS_9001\TS1252_SAL","speed\B1252Setpoint <> 27","","VELOCIDADES_AL"
"PLC_C\ROS_9102\TS3191_SAL","speed\C3191Setpoint <> 25","","VELOCIDADES_AL"
"PLC_C\ROS_9103\TS3192_SAL","speed\C3192Setpoint <> 25","","VELOCIDADES_AL"
"PLC_H\ROS_9201\SS1490_SAL","speed\H1490Setpoint <> 52","","VELOCIDADES_AL"
"PLC_E\ROS_9000\SLT3050_SAL","speed\E3060Setpoint <> 52","","VELOCIDADES_AL"
"PLC_E\ROS_9101\TS3130_SAL","speed\E3130Setpoint <> 53","","VELOCIDADES_AL"
"PLC_F\ROS_9100\TS3620_SAL","speed\F3610Setpoint <> 52","","VELOCIDADES_AL"
"PLC_F\ROS_9100\PRT3630_SAL","speed\F3640Setpoint <> 52","","VELOCIDADES_AL"
"PLC_F\ROS_9100\PRT3631_SAL","speed\F3631Setpoint <> 53","","VELOCIDADES_AL"
"PLC_D\ROS_9002\TS3701_SAL","speed\D3701Setpoint <> 26","","VELOCIDADES_AL"
"PLC_D\ROS_9003\TS3702_SAL","speed\D3702Setpoint <> 26","","VELOCIDADES_AL"
"PLC_N\ROS_9000\PRT3901_SAL","speed\N3901Setpoint <> 30","","VELOCIDADES_AL"
"PLC_N\ROS_9003\PRT3902_SAL","speed\N3902Setpoint <> 30","","VELOCIDADES_AL"
"speed\B1251Setpoint_EO","speed\B1251Setpoint","","VELOCIDADES_AL"
"speed\B1251Setpoint_EO_VW","speed\B1251Setpoint","","VELOCIDADES_AL"
"Sprytec\ALARME_SPB1A","Sprytec\PM_05RV62_SET <> 25","","SET_POINT_TEMP"
"Sprytec\ALARME_SPB2A","Sprytec\PM_05RV72_SET <> 25","","SET_POINT_TEMP"
"Sprytec\ALARME_SPB3A","Sprytec\PM_05RV81_SET <> 25","","SET_POINT_TEMP"
"Sprytec\ALARME_SPB4A","Sprytec\PM_05RV91_SET <> 25","","SET_POINT_TEMP"
"Sprytec\ALARME_SPB5A","Sprytec\PM_05RV61_SET <> 25","","SET_POINT_TEMP"
"Sprytec\ALARME_SPB6A","Sprytec\PM_05RV71_SET <> 25 ","","SET_POINT_TEMP"
"Sprytec\ALARME_SPP1A","Sprytec\PM_05RV51_SET <> 30","","SET_POINT_TEMP"
"PLC_Q\TF_UR01_SV_POS6","if ( PLC_Q\TF_UR01_VAZIO_INDEX_SEND==6)  then  PLC_Q\SN_UR01_VAZIO_SEND  else PLC_Q\TF_UR01_SV_POS6","","INFORMA함ES RS VI=W"
"T1\X\INV_STS_01","if T1\X\Status_display_X==1
then T1\X\INV_STS_01=1
else T1\X\INV_STS_01=0	
","","tst"
"T1\X\INV_STS_00","(T1\X\Status_display_X) == 0","","INV_STS"
"T1\X\INV_STS_01","if(T1\X\Status_falha_X==1) then T1\X\INV_STS_01=1 else T1\X\INV_STS_01=0","","INV_STS"
"T1\X\INV_STS_03","(T1\X\Status_display_X)==3","","INV_STS"
"T1\X\INV_STS_04","T1\X\Status_display_X == 4","","INV_STS"
"T1\X\INV_STS_06","T1\X\Status_display_X == 6","","INV_STS"
"T1\X\INV_STS_07","T1\X\Status_display_X == 7","","INV_STS"
"T1\X\INV_STS_08","T1\X\Status_display_X == 8","","INV_STS"
"T1\X\INV_STS_09","T1\X\Status_display_X == 9","","INV_STS"
"T1\X\INV_STS_10","T1\X\Status_display_X == 10","","INV_STS"
"T1\X\INV_STS_11","T1\X\Status_display_X == 11","","INV_STS"
"T1\X\INV_STS_13","T1\X\Status_display_X == 13","","INV_STS"
"T1\X\INV_STS_14","T1\X\Status_display_X == 14","","INV_STS"
"T1\X\INV_STS_15","T1\X\Status_display_X == 15","","INV_STS"
"T1\X\INV_STS_17","T1\X\Status_display_X == 17","","INV_STS"
"T1\X\INV_STS_18","T1\X\Status_display_X == 18","","INV_STS"
"T1\X\INV_STS_19","T1\X\Status_display_X == 19","","INV_STS"
"T1\X\INV_STS_20","T1\X\Status_display_X == 20","","INV_STS"
"T1\X\INV_STS_21","T1\X\Status_display_X == 21","","INV_STS"
"T1\X\INV_STS_22","T1\X\Status_display_X == 22","","INV_STS"
"T1\X\INV_STS_23","T1\X\Status_display_X == 23","","INV_STS"
"T1\X\INV_STS_24","T1\X\Status_display_X == 24","","INV_STS"
"T1\X\INV_STS_25","T1\X\Status_display_X == 25","","INV_STS"
"T1\X\INV_STS_26","T1\X\Status_display_X == 26","","INV_STS"
"T1\X\INV_STS_27","T1\X\Status_display_X == 27","","INV_STS"
"T1\X\INV_STS_28","T1\X\Status_display_X == 28","","INV_STS"
"T1\X\INV_STS_29","T1\X\Status_display_X == 29","","INV_STS"
"T1\X\INV_STS_30","T1\X\Status_display_X == 30","","INV_STS"
"T1\X\INV_STS_31","T1\X\Status_display_X == 31","","INV_STS"
"T1\X\INV_STS_32","T1\X\Status_display_X == 32","","INV_STS"
"T1\X\INV_STS_33","T1\X\Status_display_X == 33","","INV_STS"
"T1\X\INV_STS_34","T1\X\Status_display_X == 34","","INV_STS"
"T1\X\INV_STS_35","T1\X\Status_display_X == 35","","INV_STS"
"T1\X\INV_STS_36","T1\X\Status_display_X == 36","","INV_STS"
"T1\X\INV_STS_37","T1\X\Status_display_X == 37","","INV_STS"
"T1\X\INV_STS_38","T1\X\Status_display_X == 38","","INV_STS"
"T1\X\INV_STS_39","T1\X\Status_display_X == 39","","INV_STS"
"T1\X\INV_STS_40","T1\X\Status_display_X == 40","","INV_STS"
"T1\X\INV_STS_41","T1\X\Status_display_X == 41","","INV_STS"
"T1\X\INV_STS_42","T1\X\Status_display_X == 42","","INV_STS"
"T1\X\INV_STS_43","T1\X\Status_display_X == 43","","INV_STS"
"T1\X\INV_STS_44","T1\X\Status_display_X == 44","","INV_STS"
"T1\X\INV_STS_45","T1\X\Status_display_X == 45","","INV_STS"
"T1\X\INV_STS_46","T1\X\Status_display_X == 46","","INV_STS"
"T1\X\INV_STS_47","T1\X\Status_display_X == 47","","INV_STS"
"T1\X\INV_STS_48","T1\X\Status_display_X == 48","","INV_STS"
"T1\X\INV_STS_77","T1\X\Status_display_X == 77","","INV_STS"
"T1\X\INV_STS_78","T1\X\Status_display_X == 78","","INV_STS"
"T1\X\INV_STS_79","T1\X\Status_display_X == 79","","INV_STS"
"T1\X\INV_STS_80","T1\X\Status_display_X == 80","","INV_STS"
"T1\X\INV_STS_81","T1\X\Status_display_X == 81","","INV_STS"
"T1\X\INV_STS_82","T1\X\Status_display_X == 82","","INV_STS"
"T1\X\INV_STS_84","T1\X\Status_display_X == 84","","INV_STS"
"T1\X\INV_STS_85","T1\X\Status_display_X == 85","","INV_STS"
"T1\X\INV_STS_86","T1\X\Status_display_X == 86","","INV_STS"
"T1\X\INV_STS_87","T1\X\Status_display_X == 87","","INV_STS"
"T1\X\INV_STS_88","T1\X\Status_display_X == 88","","INV_STS"
"T1\X\INV_STS_93","T1\X\Status_display_X == 93","","INV_STS"
"T1\X\INV_STS_94","T1\X\Status_display_X == 94","","INV_STS"
"T1\X\INV_STS_95","T1\X\Status_display_X == 95","","INV_STS"
"T1\X\INV_STS_96","T1\X\Status_display_X == 96","","INV_STS"
"T1\X\INV_STS_97","T1\X\Status_display_X == 97","","INV_STS"
"T1\X\INV_STS_98","T1\X\Status_display_X == 98","","INV_STS"
"T1\X\INV_STS_99","T1\X\Status_display_X == 99","","INV_STS"
"T1\Y\INV_STS_01","T1\Y\Status_display_Y == 1","","INV_STS"
"T1\Y\INV_STS_03","T1\Y\Status_display_Y == 3","","INV_STS"
"T1\Y\INV_STS_04","T1\Y\Status_display_Y == 4","","INV_STS"
"T1\Y\INV_STS_06","T1\Y\Status_display_Y == 6","","INV_STS"
"T1\Y\INV_STS_07","T1\Y\Status_display_Y == 7","","INV_STS"
"T1\Y\INV_STS_08","T1\Y\Status_display_Y == 8","","INV_STS"
"T1\Y\INV_STS_09","T1\Y\Status_display_Y == 9","","INV_STS"
"T1\Y\INV_STS_10","T1\Y\Status_display_Y == 10","","INV_STS"
"T1\Y\INV_STS_11","T1\Y\Status_display_Y == 11","","INV_STS"
"T1\Y\INV_STS_13","T1\Y\Status_display_Y == 13","","INV_STS"
"T1\Y\INV_STS_14","T1\Y\Status_display_Y == 14","","INV_STS"
"T1\Y\INV_STS_15","T1\Y\Status_display_Y == 15","","INV_STS"
"T1\Y\INV_STS_17","T1\Y\Status_display_Y == 17","","INV_STS"
"T1\Y\INV_STS_18","T1\Y\Status_display_Y == 18","","INV_STS"
"T1\Y\INV_STS_19","T1\Y\Status_display_Y == 19","","INV_STS"
"T1\Y\INV_STS_20","T1\Y\Status_display_Y == 20","","INV_STS"
"T1\Y\INV_STS_21","T1\Y\Status_display_Y == 21","","INV_STS"
"T1\Y\INV_STS_22","T1\Y\Status_display_Y == 22","","INV_STS"
"T1\Y\INV_STS_23","T1\Y\Status_display_Y == 23","","INV_STS"
"T1\Y\INV_STS_24","T1\Y\Status_display_Y == 24","","INV_STS"
"T1\Y\INV_STS_25","T1\Y\Status_display_Y == 25","","INV_STS"
"T1\Y\INV_STS_26","T1\Y\Status_display_Y == 26","","INV_STS"
"T1\Y\INV_STS_27","T1\Y\Status_display_Y == 27","","INV_STS"
"T1\Y\INV_STS_28","T1\Y\Status_display_Y == 28","","INV_STS"
"T1\Y\INV_STS_29","T1\Y\Status_display_Y == 29","","INV_STS"
"T1\Y\INV_STS_30","T1\Y\Status_display_Y == 30","","INV_STS"
"T1\Y\INV_STS_31","T1\Y\Status_display_Y == 31","","INV_STS"
"T1\Y\INV_STS_32","T1\Y\Status_display_Y == 32","","INV_STS"
"T1\Y\INV_STS_33","T1\Y\Status_display_Y == 33","","INV_STS"
"T1\Y\INV_STS_34","T1\Y\Status_display_Y == 34","","INV_STS"
"T1\Y\INV_STS_35","T1\Y\Status_display_Y == 35","","INV_STS"
"T1\Y\INV_STS_36","T1\Y\Status_display_Y == 36","","INV_STS"
"T1\Y\INV_STS_37","T1\Y\Status_display_Y == 37","","INV_STS"
"T1\Y\INV_STS_38","T1\Y\Status_display_Y == 38","","INV_STS"
"T1\Y\INV_STS_39","T1\Y\Status_display_Y == 39","","INV_STS"
"T1\Y\INV_STS_40","T1\Y\Status_display_Y == 40","","INV_STS"
"T1\Y\INV_STS_41","T1\Y\Status_display_Y == 41","","INV_STS"
"T1\Y\INV_STS_42","T1\Y\Status_display_Y == 42","","INV_STS"
"T1\Y\INV_STS_43","T1\Y\Status_display_Y == 43","","INV_STS"
"T1\Y\INV_STS_44","T1\Y\Status_display_Y == 44","","INV_STS"
"T1\Y\INV_STS_45","T1\Y\Status_display_Y == 45","","INV_STS"
"T1\Y\INV_STS_46","T1\Y\Status_display_Y == 46","","INV_STS"
"T1\Y\INV_STS_47","T1\Y\Status_display_Y == 47","","INV_STS"
"T1\Y\INV_STS_48","T1\Y\Status_display_Y == 48","","INV_STS"
"T1\Y\INV_STS_77","T1\Y\Status_display_Y == 77","","INV_STS"
"T1\Y\INV_STS_78","T1\Y\Status_display_Y == 78","","INV_STS"
"T1\Y\INV_STS_79","T1\Y\Status_display_Y == 79","","INV_STS"
"T1\Y\INV_STS_80","T1\Y\Status_display_Y == 80","","INV_STS"
"T1\Y\INV_STS_81","T1\Y\Status_display_Y == 81","","INV_STS"
"T1\Y\INV_STS_82","T1\Y\Status_display_Y == 82","","INV_STS"
"T1\Y\INV_STS_84","T1\Y\Status_display_Y == 84","","INV_STS"
"T1\Y\INV_STS_85","T1\Y\Status_display_Y == 85","","INV_STS"
"T1\Y\INV_STS_86","T1\Y\Status_display_Y == 86","","INV_STS"
"T1\Y\INV_STS_87","T1\Y\Status_display_Y == 87","","INV_STS"
"T1\Y\INV_STS_88","T1\Y\Status_display_Y == 88","","INV_STS"
"T1\Y\INV_STS_93","T1\Y\Status_display_Y == 93","","INV_STS"
"T1\Y\INV_STS_94","T1\Y\Status_display_Y == 94","","INV_STS"
"T1\Y\INV_STS_95","T1\Y\Status_display_Y == 95","","INV_STS"
"T1\Y\INV_STS_96","T1\Y\Status_display_Y == 96","","INV_STS"
"T1\Y\INV_STS_97","T1\Y\Status_display_Y == 97","","INV_STS"
"T1\Y\INV_STS_98","T1\Y\Status_display_Y == 98","","INV_STS"
"T1\Y\INV_STS_99","T1\Y\Status_display_Y == 99","","INV_STS"
"T1\Z\INV_STS_01","T1\Z\Status_display_Z == 1","","INV_STS"
"T1\Z\INV_STS_03","T1\Z\Status_display_Z == 3","","INV_STS"
"T1\Z\INV_STS_04","T1\Z\Status_display_Z == 4","","INV_STS"
"T1\Z\INV_STS_06","T1\Z\Status_display_Z == 6","","INV_STS"
"T1\Z\INV_STS_07","T1\Z\Status_display_Z == 7","","INV_STS"
"T1\Z\INV_STS_08","T1\Z\Status_display_Z == 8","","INV_STS"
"T1\Z\INV_STS_09","T1\Z\Status_display_Z == 9","","INV_STS"
"T1\Z\INV_STS_10","T1\Z\Status_display_Z == 10","","INV_STS"
"T1\Z\INV_STS_11","T1\Z\Status_display_Z == 11","","INV_STS"
"T1\Z\INV_STS_13","T1\Z\Status_display_Z == 13","","INV_STS"
"T1\Z\INV_STS_14","T1\Z\Status_display_Z == 14","","INV_STS"
"T1\Z\INV_STS_15","T1\Z\Status_display_Z == 15","","INV_STS"
"T1\Z\INV_STS_17","T1\Z\Status_display_Z == 17","","INV_STS"
"T1\Z\INV_STS_18","T1\Z\Status_display_Z == 18","","INV_STS"
"T1\Z\INV_STS_19","T1\Z\Status_display_Z == 19","","INV_STS"
"T1\Z\INV_STS_20","T1\Z\Status_display_Z == 20","","INV_STS"
"T1\Z\INV_STS_21","T1\Z\Status_display_Z == 21","","INV_STS"
"T1\Z\INV_STS_22","T1\Z\Status_display_Z == 22","","INV_STS"
"T1\Z\INV_STS_23","T1\Z\Status_display_Z == 23","","INV_STS"
"T1\Z\INV_STS_24","T1\Z\Status_display_Z == 24","","INV_STS"
"T1\Z\INV_STS_25","T1\Z\Status_display_Z == 25","","INV_STS"
"T1\Z\INV_STS_26","T1\Z\Status_display_Z == 26","","INV_STS"
"T1\Z\INV_STS_27","T1\Z\Status_display_Z == 27","","INV_STS"
"T1\Z\INV_STS_28","T1\Z\Status_display_Z == 28","","INV_STS"
"T1\Z\INV_STS_29","T1\Z\Status_display_Z == 29","","INV_STS"
"T1\Z\INV_STS_30","T1\Z\Status_display_Z == 30","","INV_STS"
"T1\Z\INV_STS_31","T1\Z\Status_display_Z == 31","","INV_STS"
"T1\Z\INV_STS_32","T1\Z\Status_display_Z == 32","","INV_STS"
"T1\Z\INV_STS_33","T1\Z\Status_display_Z == 33","","INV_STS"
"T1\Z\INV_STS_34","T1\Z\Status_display_Z == 34","","INV_STS"
"T1\Z\INV_STS_35","T1\Z\Status_display_Z == 35","","INV_STS"
"T1\Z\INV_STS_36","T1\Z\Status_display_Z == 36","","INV_STS"
"T1\Z\INV_STS_37","T1\Z\Status_display_Z == 37","","INV_STS"
"T1\Z\INV_STS_38","T1\Z\Status_display_Z == 38","","INV_STS"
"T1\Z\INV_STS_39","T1\Z\Status_display_Z == 39","","INV_STS"
"T1\Z\INV_STS_40","T1\Z\Status_display_Z == 40","","INV_STS"
"T1\Z\INV_STS_41","T1\Z\Status_display_Z == 41","","INV_STS"
"T1\Z\INV_STS_42","T1\Z\Status_display_Z == 42","","INV_STS"
"T1\Z\INV_STS_43","T1\Z\Status_display_Z == 43","","INV_STS"
"T1\Z\INV_STS_44","T1\Z\Status_display_Z == 44","","INV_STS"
"T1\Z\INV_STS_45","T1\Z\Status_display_Z == 45","","INV_STS"
"T1\Z\INV_STS_46","T1\Z\Status_display_Z == 46","","INV_STS"
"T1\Z\INV_STS_47","T1\Z\Status_display_Z == 47","","INV_STS"
"T1\Z\INV_STS_48","T1\Z\Status_display_Z == 48","","INV_STS"
"T1\Z\INV_STS_77","T1\Z\Status_display_Z == 77","","INV_STS"
"T1\Z\INV_STS_78","T1\Z\Status_display_Z == 78","","INV_STS"
"T1\Z\INV_STS_79","T1\Z\Status_display_Z == 79","","INV_STS"
"T1\Z\INV_STS_80","T1\Z\Status_display_Z == 80","","INV_STS"
"T1\Z\INV_STS_81","T1\Z\Status_display_Z == 81","","INV_STS"
"T1\Z\INV_STS_82","T1\Z\Status_display_Z == 82","","INV_STS"
"T1\Z\INV_STS_84","T1\Z\Status_display_Z == 84","","INV_STS"
"T1\Z\INV_STS_85","T1\Z\Status_display_Z == 85","","INV_STS"
"T1\Z\INV_STS_86","T1\Z\Status_display_Z == 86","","INV_STS"
"T1\Z\INV_STS_87","T1\Z\Status_display_Z == 87","","INV_STS"
"T1\Z\INV_STS_88","T1\Z\Status_display_Z == 88","","INV_STS"
"T1\Z\INV_STS_93","T1\Z\Status_display_Z == 93","","INV_STS"
"T1\Z\INV_STS_94","T1\Z\Status_display_Z == 94","","INV_STS"
"T1\Z\INV_STS_95","T1\Z\Status_display_Z == 95","","INV_STS"
"T1\Z\INV_STS_96","T1\Z\Status_display_Z == 96","","INV_STS"
"T1\Z\INV_STS_97","T1\Z\Status_display_Z == 97","","INV_STS"
"T1\Z\INV_STS_98","T1\Z\Status_display_Z == 98","","INV_STS"
"T1\Z\INV_STS_99","T1\Z\Status_display_Z == 99","","INV_STS"
"RSVIEWINF\TUNEL_AL","if ( PLC_Q\QTDCAENOTUNEL_CC ) - (BSC\COUNTER_BW) >= 24 then 1 else 0","","INFORMA함ES RS VIEW"
"RSVIEWINF\TUNEL_OK","if (BSC\COUNTER_BW > 0) && (Skid_Counters\TF_CARROS_QTD <= 7 ) then 1 else 0","","INFORMA함ES RS VIEW"
"PLC_W\STATUS_FAULT","if ( PLC_W\WORD_FAULT <> 0 ) then 1 else  0","","INFORMA함ES RS VIEW"
"Sprytec\STATUS_FAULT","if ( Sprytec\WORD_FAULT <> 0 ) then 1 else  0","","INFORMA함ES RS VIEW"
"SP_COLOR_BATCH_L1_COR","if ( SP_COLOR_BATCH_INDEX_LINE == 1) then SP_COLOR_BATCH_COLOR_LINE  else SP_COLOR_BATCH_L1_COR","","INFORMA함ES RS VIEW"
"SP_COLOR_BATCH_L2_COR","if ( SP_COLOR_BATCH_INDEX_LINE == 2) then SP_COLOR_BATCH_COLOR_LINE  else SP_COLOR_BATCH_L2_COR","","INFORMA함ES RS VIEW"
"SP_COLOR_BATCH_L3_COR","if ( SP_COLOR_BATCH_INDEX_LINE == 3) then SP_COLOR_BATCH_COLOR_LINE  else SP_COLOR_BATCH_L3_COR","","INFORMA함ES RS VIEW"
"SP_COLOR_BATCH_L4_COR","if ( SP_COLOR_BATCH_INDEX_LINE == 4) then SP_COLOR_BATCH_COLOR_LINE  else SP_COLOR_BATCH_L4_COR","","INFORMA함ES RS VIEW"
"SP_COLOR_BATCH_L5_COR","if ( SP_COLOR_BATCH_INDEX_LINE == 5) then SP_COLOR_BATCH_COLOR_LINE  else SP_COLOR_BATCH_L5_COR","","INFORMA함ES RS VIEW"
"SP_COLOR_BATCH_L6_COR","if ( SP_COLOR_BATCH_INDEX_LINE == 6) then(SP_COLOR_BATCH_COLOR_LINE) else SP_COLOR_BATCH_L6_COR","","INFORMA함ES RS VIEW"
"SP_COLOR_BATCH_L1_QTD","if ( SP_COLOR_BATCH_INDEX_LINE == 1) then SP_COLOR_BATCH_LINE_QTD else SP_COLOR_BATCH_L1_QTD ","","INFORMA함ES RS VIEW"
"SP_COLOR_BATCH_L2_QTD","if ( SP_COLOR_BATCH_INDEX_LINE == 2) then SP_COLOR_BATCH_LINE_QTD else SP_COLOR_BATCH_L2_QTD ","","INFORMA함ES RS VIEW"
"SP_COLOR_BATCH_L3_QTD","if ( SP_COLOR_BATCH_INDEX_LINE == 3) then SP_COLOR_BATCH_LINE_QTD else SP_COLOR_BATCH_L3_QTD ","","INFORMA함ES RS VIEW"
"SP_COLOR_BATCH_L4_QTD","if ( SP_COLOR_BATCH_INDEX_LINE == 4) then SP_COLOR_BATCH_LINE_QTD else SP_COLOR_BATCH_L4_QTD ","","INFORMA함ES RS VIEW"
"SP_COLOR_BATCH_L5_QTD","if ( SP_COLOR_BATCH_INDEX_LINE == 5) then SP_COLOR_BATCH_LINE_QTD else SP_COLOR_BATCH_L5_QTD ","","INFORMA함ES RS VIEW"
"SP_COLOR_BATCH_L6_QTD","if ( SP_COLOR_BATCH_INDEX_LINE == 6) then SP_COLOR_BATCH_LINE_QTD else SP_COLOR_BATCH_L6_QTD ","","INFORMA함ES RS VIEW"
"SP_COLOR_BATCH_TOTAL","SP_COLOR_BATCH_L1_QTD + SP_COLOR_BATCH_L2_QTD + SP_COLOR_BATCH_L3_QTD + SP_COLOR_BATCH_L4_QTD + SP_COLOR_BATCH_L5_QTD + SP_COLOR_BATCH_L6_QTD ","","INFORMA함ES RS VIEW"
"SP_COLOR_BATCH_RESTR_AL","if ( SP_COLOR_BATCH_COLOR_RESTR <> 0) then 1 else 0","","INFORMA함ES RS VIEW"
"PLC_S\RP_CLEANING_LR_POS1","if ( PLC_S\RP_CLEANING_INDEX_SEND==1)  then  PLC_S\SN_CLEAN_SEND  else PLC_S\RP_CLEANING_LR_POS1","","INFORMA함ES RS VIEW"
"PLC_S\RP_CLEANING_LR_POS2","if ( PLC_S\RP_CLEANING_INDEX_SEND==2)  then PLC_S\SN_CLEAN_SEND  else PLC_S\RP_CLEANING_LR_POS2","","INFORMA함ES RS VIEW"
"PLC_S\RP_CLEANING_LR_POS3","if ( PLC_S\RP_CLEANING_INDEX_SEND==3)  then  PLC_S\SN_CLEAN_SEND  else PLC_S\RP_CLEANING_LR_POS3","","INFORMA함ES RS VIEW"
"PLC_S\RP_CLEANING_LR_POS4","if ( PLC_S\RP_CLEANING_INDEX_SEND==4)  then  PLC_S\SN_CLEAN_SEND  else PLC_S\RP_CLEANING_LR_POS4","","INFORMA함ES RS VIEW"
"PLC_S\RP_CLEANING_LR_POS5","if ( PLC_S\RP_CLEANING_INDEX_SEND==5)  then  PLC_S\SN_CLEAN_SEND  else PLC_S\RP_CLEANING_LR_POS5","","INFORMA함ES RS VIEW"
"PLC_S\RP_CLEANING_LR_POS6","if ( PLC_S\RP_CLEANING_INDEX_SEND==6)  then PLC_S\SN_CLEAN_SEND  else PLC_S\RP_CLEANING_LR_POS6","","INFORMA함ES RS VIEW"
"PLC_S\RP_CLEANING_LR_POS7","if ( PLC_S\RP_CLEANING_INDEX_SEND==7)  then  PLC_S\SN_CLEAN_SEND  else PLC_S\RP_CLEANING_LR_POS7","","INFORMA함ES RS VIEW"
"PLC_S\RP_CLEANING_LR_POS8","if ( PLC_S\RP_CLEANING_INDEX_SEND==8)  then  PLC_S\SN_CLEAN_SEND  else PLC_S\RP_CLEANING_LR_POS8","","INFORMA함ES RS VIEW"
"PLC_S\RP_CLEANING_LR_POS9","if ( PLC_S\RP_CLEANING_INDEX_SEND==9)  then  PLC_S\SN_CLEAN_SEND  else PLC_S\RP_CLEANING_LR_POS9","","INFORMA함ES RS VIEW"
"PLC_S\RP_CLEANING_LR_POS10","if ( PLC_S\RP_CLEANING_INDEX_SEND==10)  then  PLC_S\SN_CLEAN_SEND  else PLC_S\RP_CLEANING_LR_POS10","","INFORMA함ES RS VIEW"
"PLC_S\RP_CLEANING_LR_POS11","if ( PLC_S\RP_CLEANING_INDEX_SEND==11)  then  PLC_S\SN_CLEAN_SEND  else PLC_S\RP_CLEANING_LR_POS11","","INFORMA함ES RS VIEW"
"PLC_S\RP_CLEANING_LR_POS12","if ( PLC_S\RP_CLEANING_INDEX_SEND==12)  then  PLC_S\SN_CLEAN_SEND  else PLC_S\RP_CLEANING_LR_POS12","","INFORMA함ES RS VIEW"
"PLC_S\RP_CLEANING_LR_POS13","if ( PLC_S\RP_CLEANING_INDEX_SEND==13)  then  PLC_S\SN_CLEAN_SEND  else PLC_S\RP_CLEANING_LR_POS13","","INFORMA함ES RS VIEW"
"PLC_S\RP_CLEANING_LR_POS14","if ( PLC_S\RP_CLEANING_INDEX_SEND==14)  then  PLC_S\SN_CLEAN_SEND  else PLC_S\RP_CLEANING_LR_POS14","","INFORMA함ES RS VIEW"
"PLC_S\RP_CLEANING_LR_POS15","if ( PLC_S\RP_CLEANING_INDEX_SEND==15)  then  PLC_S\SN_CLEAN_SEND  else PLC_S\RP_CLEANING_LR_POS15","","INFORMA함ES RS VIEW"
"PLC_S\RP_CLEANING_LR_POS16","if ( PLC_S\RP_CLEANING_INDEX_SEND==16)  then  PLC_S\SN_CLEAN_SEND  else PLC_S\RP_CLEANING_LR_POS16","","INFORMA함ES RS VIEW"
"PLC_S\RP_CLEANING_LR_POS17","if ( PLC_S\RP_CLEANING_INDEX_SEND==17)  then  PLC_S\SN_CLEAN_SEND  else PLC_S\RP_CLEANING_LR_POS17","","INFORMA함ES RS VIEW"
"PLC_S\RP_CLEANING_LR_POS18","if ( PLC_S\RP_CLEANING_INDEX_SEND==18)  then  PLC_S\SN_CLEAN_SEND  else PLC_S\RP_CLEANING_LR_POS18","","INFORMA함ES RS VIEW"
"PLC_S\RP_CLEANING_LR_POS19","if ( PLC_S\RP_CLEANING_INDEX_SEND==19)  then  PLC_S\SN_CLEAN_SEND  else PLC_S\RP_CLEANING_LR_POS19","","INFORMA함ES RS VIEW"
"PLC_S\RP_CLEANING_LR_POS20","if ( PLC_S\RP_CLEANING_INDEX_SEND==20)  then  PLC_S\SN_CLEAN_SEND  else PLC_S\RP_CLEANING_LR_POS20","","INFORMA함ES RS VIEW"
"PLC_S\RP_CLEANING_FULL","if (( PLC_S\RP_CLEANING_LR_POS1 <> 0) && (PLC_S\RP_CLEANING_LR_POS2 <> 0) && ( PLC_S\RP_CLEANING_LR_POS3 <> 0 ) && (PLC_S\RP_CLEANING_LR_POS4 <> 0) && (PLC_S\RP_CLEANING_LR_POS5 <> 0) && (PLC_S\RP_CLEANING_LR_POS6 <> 0) && (PLC_S\RP_CLEANING_LR_POS7 <> 0) && (PLC_S\RP_CLEANING_LR_POS8 <> 0) && (PLC_S\RP_CLEANING_LR_POS9 <> 0) && (PLC_S\RP_CLEANING_LR_POS10 <> 0) && (PLC_S\RP_CLEANING_LR_POS11 <> 0) && (PLC_S\RP_CLEANING_LR_POS12 <> 0) && (PLC_S\RP_CLEANING_LR_POS13 <> 0) && (PLC_S\RP_CLEANING_LR_POS14 <> 0) && (PLC_S\RP_CLEANING_LR_POS15 <> 0) && (PLC_S\RP_CLEANING_LR_POS16 <> 0) && (PLC_S\RP_CLEANING_LR_POS17 <> 0) && (PLC_S\RP_CLEANING_LR_POS18 <> 0) && (PLC_S\RP_CLEANING_LR_POS19 <> 0) && (PLC_S\RP_CLEANING_LR_POS20 <> 0)) then 1 else 0","","INFORMA함ES RS VIEW"
"trend\TIME_RANGE_H","trend\timerange/3600","TRANSFORMA O TIME RANGE PARA HORAS","INFORMA함ES RS VIEW"
"FS\FR_APPROVAL_UH","(FS\UND_OK_FR_UH/FS\UND_PROCESS_FR_UH)*100","","INFORMA함ES RS VIEW"
"FS\FR_APPROVAL_TA","(FS\UND_OK_FR_TA/FS\UND_PROCESS_FR_TA)*100","","INFORMA함ES RS VIEW"
"FS\FR_APPROVAL_DIA","(FS\UND_OK_FR_DIA/FS\UND_PROCESS_FR_DIA)*100","","INFORMA함ES RS VIEW"
"SP_COLOR_BATCH_COLOR_LOTE_AL","SP_COLOR_BATCH_COLOR_LOTE_MIN <> 1","","INFORMA함ES RS VIEW"
"PLC_Q\TF_UR01_SV_POS1","if ( PLC_Q\TF_UR01_VAZIO_INDEX_SEND==1)  then  PLC_Q\SN_UR01_VAZIO_SEND  else PLC_Q\TF_UR01_SV_POS1","","INFORMA함ES RS VIEW"
"PLC_Q\TF_UR01_SV_POS2","if ( PLC_Q\TF_UR01_VAZIO_INDEX_SEND==2)  then  PLC_Q\SN_UR01_VAZIO_SEND  else PLC_Q\TF_UR01_SV_POS2","","INFORMA함ES RS VIEW"
"PLC_Q\TF_UR01_SV_POS3","if ( PLC_Q\TF_UR01_VAZIO_INDEX_SEND==3)  then  PLC_Q\SN_UR01_VAZIO_SEND  else PLC_Q\TF_UR01_SV_POS3","","INFORMA함ES RS VIEW"
"PLC_Q\TF_UR01_SV_POS4","if ( PLC_Q\TF_UR01_VAZIO_INDEX_SEND==4)  then  PLC_Q\SN_UR01_VAZIO_SEND  else PLC_Q\TF_UR01_SV_POS4","","INFORMA함ES RS VIEW"
"PLC_Q\TF_UR01_SV_POS5","if ( PLC_Q\TF_UR01_VAZIO_INDEX_SEND==5)  then  PLC_Q\SN_UR01_VAZIO_SEND  else PLC_Q\TF_UR01_SV_POS5","","INFORMA함ES RS VIEW"
"PLC_Q\TF_UR01_SV_POS6","if ( PLC_Q\TF_UR01_VAZIO_INDEX_SEND==6)  then  PLC_Q\SN_UR01_VAZIO_SEND  else PLC_Q\TF_UR01_SV_POS6","","INFORMA함ES RS VIEW"
"PLC_Q\TF_UR01_SV_POS7","if ( PLC_Q\TF_UR01_VAZIO_INDEX_SEND==7)  then  PLC_Q\SN_UR01_VAZIO_SEND  else PLC_Q\TF_UR01_SV_POS7","","INFORMA함ES RS VIEW"
"PLC_Q\TF_UR01_SV_POS8","if ( PLC_Q\TF_UR01_VAZIO_INDEX_SEND==8)  then  PLC_Q\SN_UR01_VAZIO_SEND  else PLC_Q\TF_UR01_SV_POS8","","INFORMA함ES RS VIEW"
"PLC_Q\TF_UR01_SV_POS9","if ( PLC_Q\TF_UR01_VAZIO_INDEX_SEND==9)  then  PLC_Q\SN_UR01_VAZIO_SEND  else PLC_Q\TF_UR01_SV_POS9","","INFORMA함ES RS VIEW"
"PLC_Q\TF_UR01_SV_POS10","if ( PLC_Q\TF_UR01_VAZIO_INDEX_SEND==10)  then  PLC_Q\SN_UR01_VAZIO_SEND  else PLC_Q\TF_UR01_SV_POS10","","INFORMA함ES RS VIEW"
"RSVIEWINF\SISTEMA_DIP_AL","Skid_Counters\EL_SOUT_QTD_MAX <> 78","","INFORMA함ES RS VIEW"
"Skid_Counters\TF_CARROS_QTD","(PLC_Q\QTDCAENOTUNEL_CC)-(BSC\COUNTER_BW)","","INFORMA함ES RS VIEW"
"RSVIEWINF\PEND1160_VAZIO","if (PLC_A\PEND1160_CC == 0 ) && (RSVIEWINF\PENDELPO_VAZIO == 1 ) then 1 else 0  ","EL_A_ ***** PENDULO DO ELPO VAZIO *****","INFORMA함ES RS VIEW"
"RSVIEWINF\PEND_1100_VAZIO","if (PLC_A\PEND1100_CC == 0 ) && (RSVIEWINF\PENDTTS_VAZIO == 1 ) then 1 else 0  ","PT_A_ ***** PENDULO DO TTS VAZIO *****","INFORMA함ES RS VIEW"
"RSVIEWINF\ESTELPO_L1_VAZIA","if (PLC_B\ESTELPOL1_CC ==0 ) && (RSVIEWINF\ESTELPOL1_VAZIA == 1 ) then 1 else 0  ","EE_B_ ***** ESTUFA ELPO LINHA 1 VAZIA *****","INFORMA함ES RS VIEW"
"RSVIEWINF\ESTELPO_L2_VAZIA","if (PLC_B\ESTELPOL2_CC ==0 ) && (RSVIEWINF\ESTELPOL2_VAZIA == 1 ) then 1 else 0  ","EE_B_ ***** ESTUFA ELPO LINHA 2 VAZIA *****","INFORMA함ES RS VIEW"
"RSVIEWINF\ESTPRIMER_L1_VAZIA","if (PLC_C\ESTPRIMERL1_CC ==0 ) && (RSVIEWINF\ESTPRIMERL1_VAZIA == 1 ) then 1 else 0  ","EP_C_ ***** ESTUFA PRIMER LINHA 1 VAZIA *****","INFORMA함ES RS VIEW"
"RSVIEWINF\ESTPRIMER_L2_VAZIA","if (PLC_C\ESTPRIMERL2_CC ==0 ) && (RSVIEWINF\ESTPRIMERL2_VAZIA == 1 ) then 1 else 0  ","EP_C_ ***** ESTUFA PRIMER LINHA 2 VAZIA *****","INFORMA함ES RS VIEW"
"RSVIEWINF\ESTTOPCOAT_L1_VAZIA","if (PLC_D\ESTTOPCOATL1_CC ==0 ) && (RSVIEWINF\ESTTOPCOATL1_VAZIA == 1 ) then 1 else 0  ","ET_D_ ***** ESTUFA TOPCOAT LINHA 1 VAZIA *****","INFORMA함ES RS VIEW"
"RSVIEWINF\ESTTOPCOAT_L2_VAZIA","if (PLC_D\ESTTOPCOATL2_CC ==0 ) && (RSVIEWINF\ESTTOPCOATL2_VAZIA == 1 ) then 1 else 0  ","ET_D_ ***** ESTUFA TOPCOAT LINHA 2 VAZIA *****","INFORMA함ES RS VIEW"
"PLC_M\CBATCHLAEREA_AL","if (PLC_M\CBATCHLAREA_CC < 25 ) && (PLC_M\STRIPOUTPRIMER_CC >= 5 ) then 1 else 0  ","","INFORMA함ES RS VIEW"
"RSVIEWINF\SP_RECCOR1","if  PLC_M\SP_RECIRC_COR <> 0 then 1 else 0","","INFORMA함ES RS VIEW"
"RSVIEWINF\SP_RECCOR2","if  PLC_M\SP_RECIRC_COR2  <> 0 then 1 else 0","","INFORMA함ES RS VIEW"
"RSVIEWINF\SP_RECMODVER","if  PLC_M\SP_RECIRC_MODVER <> 0 then 1 else 0","","INFORMA함ES RS VIEW"
"RSVIEWINF\SP_RECSKID","if  PLC_M\SP_RECIRC_SKID <> 0 then 1 else 0","","INFORMA함ES RS VIEW"
"RSVIEWINF\S_OUT_PRIMER_VAGAS_AL","Skid_Counters\PR_SOUT_QTD_MAX <> 57","","INFORMA함ES RS VIEW"
"RSVIEWINF\S_OUT_TC_VAGAS_AL","Skid_Counters\TC_SOUT_QTD_MAX <> 57","","INFORMA함ES RS VIEW"
"RSVIEWINF\EO_L1_VEL","RSVIEWINF\EO_L1_VEL=speed\B1251Setpoint","","INFORMA함ES RS VIEW"
"RSVIEWINF\SS1490_TS_MOT1","if ( RSVIEWINF\SS1490_TS_MOTIVOS = 1 ) then 1 else 0 ","","INFORMA함ES RS VIEW"
"RSVIEWINF\SS1490_TS_MOT2","if ( RSVIEWINF\SS1490_TS_MOTIVOS = 2 ) then 1 else 0 ","","INFORMA함ES RS VIEW"
"RSVIEWINF\SS1490_TS_MOT3","if ( RSVIEWINF\SS1490_TS_MOTIVOS = 3 ) then 1 else 0 ","","INFORMA함ES RS VIEW"
"RSVIEWINF\SS1490_TS_MOT4","if ( RSVIEWINF\SS1490_TS_MOTIVOS = 4 ) then 1 else 0 ","","INFORMA함ES RS VIEW"
"RSVIEWINF\SS1490_TS_MOT5","if ( RSVIEWINF\SS1490_TS_MOTIVOS = 5 ) then 1 else 0 ","","INFORMA함ES RS VIEW"
"RSVIEWINF\SS1490_TS_MOT6","if ( RSVIEWINF\SS1490_TS_MOTIVOS = 6 ) then 1 else 0 ","","INFORMA함ES RS VIEW"
"RSVIEWINF\SS1490_TS_MOT7","if ( RSVIEWINF\SS1490_TS_MOTIVOS = 7 ) then 1 else 0 ","","INFORMA함ES RS VIEW"
"RSVIEWINF\SS1490_TS_MOT8","if ( RSVIEWINF\SS1490_TS_MOTIVOS = 8 ) then 1 else 0 ","","INFORMA함ES RS VIEW"
"RSVIEWINF\SS1490_TS_MOT9","if ( RSVIEWINF\SS1490_TS_MOTIVOS = 9 ) then 1 else 0 ","","INFORMA함ES RS VIEW"
"RSVIEWINF\SS1490_TS_MOT0","if ( ( RSVIEWINF\SS1490_TS = 1) && ( RSVIEWINF\SS1490_TS_MOTIVOS = 0 ) ) then 1 else 0 ","","INFORMA함ES RS VIEW"
"RSVIEWINF\SS1490_TS_MOT10","if ( RSVIEWINF\SS1490_TS_MOTIVOS = 10 ) then 1 else 0 ","","INFORMA함ES RS VIEW"
"RSVIEWINF\PEND1100_NPA","if (RSVIEWINF\PEND1100_NP <> RSVIEWINF\PEND1100_NPA ) then RSVIEWINF\PEND1100_NP else RSVIEWINF\PEND1100_NPA ","","INFORMA함ES RS VIEW"
"PLC_A\ROS_9101\PEND1100_DPP","if ( PLC_A\ROS_9101\PEND1100_DPP1==1) && (PT_TTS__AUTO_STP==0)then 1  else  0","","INFORMA함ES RS VIEW"
"RSVIEWINF\SIS_TC_EU","if ( (PLC_L\STRIPOUTTOPCOAT_CC+PLC_F\ESTCABTC_CC) >(Skid_Counters\TC_SOUT_QTD_MAX ) ) then 1  else 0
","","INFORMA함ES RS VIEW"
"PLC_H\STRIPOUTELPO_VG"," If (Skid_Counters\EL_SOUT_QTD_MAX)-(PLC_H\STRIPOUTELPO_CC+PLC_H\skidsbeforestripout_sbee)<0 Then  ((Skid_Counters\EL_SOUT_QTD_MAX)-(PLC_H\STRIPOUTELPO_CC+PLC_H\skidsbeforestripout_sbee)) = 0  Else ((Skid_Counters\EL_SOUT_QTD_MAX)-(PLC_H\STRIPOUTELPO_CC+PLC_H\skidsbeforestripout_sbee))","","INFORMA함ES RS VIEW"
"PLC_M\STRIPOUTPRIMER_VG","If((Skid_Counters\PR_SOUT_QTD_MAX)-(PLC_M\STRIPOUTPRIMER_CC+PLC_E\ESTECAB_CC)<0)  Then (Skid_Counters\PR_SOUT_QTD_MAX)-(PLC_M\STRIPOUTPRIMER_CC+PLC_E\ESTECAB_CC)=0 Else (Skid_Counters\PR_SOUT_QTD_MAX)-(PLC_M\STRIPOUTPRIMER_CC+PLC_E\ESTECAB_CC)","","INFORMA함ES RS VIEW"
"PLC_L\STRIPOUTTOPCOAT_VG","If((Skid_Counters\TC_SOUT_QTD_MAX)-(PLC_L\STRIPOUTTOPCOAT_CC+PLC_F\ESTCABTC_CC)<0) Then (Skid_Counters\TC_SOUT_QTD_MAX)-(PLC_L\STRIPOUTTOPCOAT_CC+PLC_F\ESTCABTC_CC)=0 Else (Skid_Counters\TC_SOUT_QTD_MAX)-(PLC_L\STRIPOUTTOPCOAT_CC+PLC_F\ESTCABTC_CC)","","INFORMA함ES RS VIEW"
"Sprytec\PM_05RV42_SPMD","(Sprytec\PM_05RV42_SPMM)*(10)","","INFORMA함ES RS VIEW"
