;###001 - THIS LINE CONTAINS VERSION INFORMATION. DO NOT REMOVE!!!

;ALARMS
 
;Analog Alarms
;Analog A,Tagname,HandshakeTagName,HandshakeAutoReset,Acktagname,AckAutoreset,Deadbandvalue,DeadbandType,Outofalarmlabel,AlarmIdentification,Ack File Msg,Ack Printer Message, Ack Message Source,Out of Alm file msg,Out of Alm printer msg,Out of Alm Message Source ,Thresh1 type,Threshold,Label,MessageSource,File msg,Printer msg,Direction,Severity,Thresh2 type,Threshold,Label,MessageSource,File msg,Printer msg,Direction,Severity,Thresh3 type,Threshold,Label,MessageSource,File msg,Printer msg,Direction,Severity,Thresh4 type,Threshold,Label,MessageSource,File msg,Printer msg,Direction,Severity,Thresh5 type,Threshold,Label,MessageSource,File msg,Printer msg,Direction,Severity,Thresh6 type,Threshold,Label,MessageSource,File msg,Printer msg,Direction,Severity,Thresh7 type,Threshold,Label,MessageSource,File msg,Printer msg,Direction,Severity,Thresh8 type,Threshold,Label,MessageSource,File msg,Printer msg,Direction,Severity,
 
;Digital Alarms
;Digital D,Tagname,type,Label,Severity,Message Source,File msg,Printer msg,Out of alm msg source,Out Of alm File msg,Out of alm Printer msg,Ack msg source,Ack File msg,Ack Printer msg,Alarm Identify,Out of alm label,Ack Tag Name,Ack Auto Reset,Handshake Tag Name,Handshake Auto Reset
"D","CONTROLE_EQP\PRE_TRAT\FILTRO_PRENSA_1_OK","ON","","1","U","","","U","","","U","","","","","","N","","N"
"D","CONTROLE_EQP\PRE_TRAT\FILTRO_PRENSA_2_OK","ON","","1","U","","","U","","","U","","","","","","N","","N"
"D","CONTROLE_EQP\PRE_TRAT\TESTE_DIGITAL","ON","","1","U","","","U","","","U","","","","","","N","","N"
"D","PRE_TRAT\TEMPO_TEMPER_28PV01","ON","","1","U","","","U","","","U","","","","","","N","","N"
"D","PRE_TRAT\TEMPO_TEMPER_28PV01_OFF","OFF","","1","U","","","U","","","U","","","","","","N","","N"
"D","PRE_TRAT\VALVULA28PV01_SELO_DI","ON","","1","U","","","U","","","U","","","","","","N","","N"
"D","PRE_TRAT\VALVULA28PV01_SELO_DI_OFF","OFF","","1","U","","","U","","","U","","","","","","N","","N"
"D","TINTA_AN\BASE2","ON","","1","U","","","U","","","U","","","","","","N","","N"
"D","TINTA_AN\BASE2B","OFF","","1","U","","","U","","","U","","","","","","N","","N"
"D","TINTA_AN\PRIMER2_SOLENOIDE","ON","","1","U","","","U","","","U","","","","","","N","","N"
"D","TINTA_AN\PRIMER2_SOLENOIDE_FECH","OFF","","1","U","","","U","","","U","","","","","","N","","N"
"D","TINTA_AN\PRIMER2_TMAN_1_3","OFF","","1","U","","","U","","","U","","","","","","N","","N"
"D","TINTA_AN\PRIMER2_TMAN_3_3","ON","","1","U","","","U","","","U","","","","","","N","","N"
"D","TINTA_AN\PRIMER2VD_TMAN_1_3","ON","","1","U","","","U","","","U","","","","","","N","","N"
"D","TINTA_AN\PRIMER2VD_TMAN_3_3","OFF","","1","U","","","U","","","U","","","","","","N","","N"
