;###001 - THIS LINE CONTAINS VERSION INFORMATION. DO NOT REMOVE!!!

;ALARMS
 
;Analog Alarms
;Analog A,Tagname,HandshakeTagName,HandshakeAutoReset,Acktagname,AckAutoreset,Deadbandvalue,DeadbandType,Outofalarmlabel,AlarmIdentification,Ack File Msg,Ack Printer Message, Ack Message Source,Out of Alm file msg,Out of Alm printer msg,Out of Alm Message Source ,Thresh1 type,Threshold,Label,MessageSource,File msg,Printer msg,Direction,Severity,Thresh2 type,Threshold,Label,MessageSource,File msg,Printer msg,Direction,Severity,Thresh3 type,Threshold,Label,MessageSource,File msg,Printer msg,Direction,Severity,Thresh4 type,Threshold,Label,MessageSource,File msg,Printer msg,Direction,Severity,Thresh5 type,Threshold,Label,MessageSource,File msg,Printer msg,Direction,Severity,Thresh6 type,Threshold,Label,MessageSource,File msg,Printer msg,Direction,Severity,Thresh7 type,Threshold,Label,MessageSource,File msg,Printer msg,Direction,Severity,Thresh8 type,Threshold,Label,MessageSource,File msg,Printer msg,Direction,Severity,
 
;Digital Alarms
;Digital D,Tagname,type,Label,Severity,Message Source,File msg,Printer msg,Out of alm msg source,Out Of alm File msg,Out of alm Printer msg,Ack msg source,Ack File msg,Ack Printer msg,Alarm Identify,Out of alm label,Ack Tag Name,Ack Auto Reset,Handshake Tag Name,Handshake Auto Reset
"D","PLC_J\HMI1\CT3960_IDC1_F12","ON","","1","U","","","U","","","U","","","","","","N","","N"
"D","PLC_J\HMI1\CT3960_IDC1_F13","ON","","1","U","","","U","","","U","","","","","","N","","N"
"D","PLC_J\HMI1\CT3960_IDC1_F19","ON","","1","U","","","U","","","U","","","","","","N","","N"
"D","PLC_J\HMI1\CT3960_IDC1_F21","ON","","1","U","","","U","","","U","","","","","","N","","N"
"D","PLC_J\HMI1\CT3960_IDC1_F5","ON","","1","U","","","U","","","U","","","","","","N","","N"
"D","PLC_J\HMI1\CT4510_IDC1_F12","ON","","1","U","","","U","","","U","","","","","","N","","N"
"D","PLC_J\HMI1\CT4510_IDC1_F13","ON","","1","U","","","U","","","U","","","","","","N","","N"
"D","PLC_J\HMI1\CT4510_IDC1_F19","ON","","1","U","","","U","","","U","","","","","","N","","N"
"D","PLC_J\HMI1\CT4510_IDC1_F21","ON","","1","U","","","U","","","U","","","","","","N","","N"
"D","PLC_J\HMI1\CT4510_IDC1_F5","ON","","1","U","","","U","","","U","","","","","","N","","N"
"D","PLC_J\HMI1\PLB4510_3_FAULT_PL_LL","ON","","1","U","","","U","","","U","","","","","","N","","N"
"D","PLC_J\HMI1\PLB4510_3_FAULT_PL_LM","ON","","1","U","","","U","","","U","","","","","","N","","N"
"D","PLC_J\HMI1\PLB4510_3_FAULT_PL_LR","ON","","1","U","","","U","","","U","","","","","","N","","N"
"D","PLC_J\HMI1\PLB4510_3_IDC1_F12","ON","","1","U","","","U","","","U","","","","","","N","","N"
"D","PLC_J\HMI1\PLB4510_3_IDC1_F19","ON","","1","U","","","U","","","U","","","","","","N","","N"
"D","PLC_J\HMI1\PLB4510_3_IDC1_F21","ON","","1","U","","","U","","","U","","","","","","N","","N"
"D","PLC_J\HMI1\PLB4510_3_IDC2_F13","ON","","1","U","","","U","","","U","","","","","","N","","N"
"D","PLC_J\HMI1\PLB4510_3_IDC2_F5","ON","","1","U","","","U","","","U","","","","","","N","","N"
"D","PLC_J\HMI1\PRB3957_FAULT_PD","ON","","1","U","","","U","","","U","","","","","","N","","N"
"D","PLC_J\HMI1\PRB3957_FAULT_TE","ON","","1","U","","","U","","","U","","","","","","N","","N"
"D","PLC_J\HMI1\PRB3957_IDC1_F12","ON","","1","U","","","U","","","U","","","","","","N","","N"
"D","PLC_J\HMI1\PRB3957_IDC1_F13","ON","","1","U","","","U","","","U","","","","","","N","","N"
"D","PLC_J\HMI1\PRB3957_IDC1_F19","ON","","1","U","","","U","","","U","","","","","","N","","N"
"D","PLC_J\HMI1\PRB3957_IDC1_F21","ON","","1","U","","","U","","","U","","","","","","N","","N"
"D","PLC_J\HMI1\PRB3957_IDC1_F5","ON","","1","U","","","U","","","U","","","","","","N","","N"
"D","PLC_J\HMI1\PRB4501_FAULT_PD","ON","","1","U","","","U","","","U","","","","","","N","","N"
"D","PLC_J\HMI1\PRB4501_FAULT_TE","ON","","1","U","","","U","","","U","","","","","","N","","N"
"D","PLC_J\HMI1\PRB4501_IDC1_F12","ON","","1","U","","","U","","","U","","","","","","N","","N"
"D","PLC_J\HMI1\PRB4501_IDC1_F13","ON","","1","U","","","U","","","U","","","","","","N","","N"
"D","PLC_J\HMI1\PRB4501_IDC1_F19","ON","","1","U","","","U","","","U","","","","","","N","","N"
"D","PLC_J\HMI1\PRB4501_IDC1_F21","ON","","1","U","","","U","","","U","","","","","","N","","N"
"D","PLC_J\HMI1\PRB4501_IDC1_F5","ON","","1","U","","","U","","","U","","","","","","N","","N"
"D","PLC_J\HMI1\PRB4502_FAULT_PD","ON","","1","U","","","U","","","U","","","","","","N","","N"
"D","PLC_J\HMI1\PRB4502_FAULT_TE","ON","","1","U","","","U","","","U","","","","","","N","","N"
"D","PLC_J\HMI1\PRB4502_IDC1_F12","ON","","1","U","","","U","","","U","","","","","","N","","N"
"D","PLC_J\HMI1\PRB4502_IDC1_F13","ON","","1","U","","","U","","","U","","","","","","N","","N"
"D","PLC_J\HMI1\PRB4502_IDC1_F19","ON","","1","U","","","U","","","U","","","","","","N","","N"
"D","PLC_J\HMI1\PRB4502_IDC1_F21","ON","","1","U","","","U","","","U","","","","","","N","","N"
"D","PLC_J\HMI1\PRB4502_IDC1_F5","ON","","1","U","","","U","","","U","","","","","","N","","N"
"D","PLC_J\HMI1\PRB4503_FAULT_PD","ON","","1","U","","","U","","","U","","","","","","N","","N"
"D","PLC_J\HMI1\PRB4503_FAULT_TE","ON","","1","U","","","U","","","U","","","","","","N","","N"
"D","PLC_J\HMI1\PRB4503_IDC1_F12","ON","","1","U","","","U","","","U","","","","","","N","","N"
"D","PLC_J\HMI1\PRB4503_IDC1_F13","ON","","1","U","","","U","","","U","","","","","","N","","N"
"D","PLC_J\HMI1\PRB4503_IDC1_F19","ON","","1","U","","","U","","","U","","","","","","N","","N"
"D","PLC_J\HMI1\PRB4503_IDC1_F21","ON","","1","U","","","U","","","U","","","","","","N","","N"
"D","PLC_J\HMI1\PRB4503_IDC1_F5","ON","","1","U","","","U","","","U","","","","","","N","","N"
"D","PLC_J\HMI1\PRLB3960_1_FAULT_PD","ON","","1","U","","","U","","","U","","","","","","N","","N"
"D","PLC_J\HMI1\PRLB3960_1_FAULT_PL_LL","ON","","1","U","","","U","","","U","","","","","","N","","N"
"D","PLC_J\HMI1\PRLB3960_1_FAULT_PL_LR","ON","","1","U","","","U","","","U","","","","","","N","","N"
"D","PLC_J\HMI1\PRLB3960_1_FAULT_TE","ON","","1","U","","","U","","","U","","","","","","N","","N"
"D","PLC_J\HMI1\PRLB3960_1_IDC1_F12","ON","","1","U","","","U","","","U","","","","","","N","","N"
"D","PLC_J\HMI1\PRLB3960_1_IDC1_F13","ON","","1","U","","","U","","","U","","","","","","N","","N"
"D","PLC_J\HMI1\PRLB3960_1_IDC1_F19","ON","","1","U","","","U","","","U","","","","","","N","","N"
"D","PLC_J\HMI1\PRLB3960_1_IDC1_F21","ON","","1","U","","","U","","","U","","","","","","N","","N"
"D","PLC_J\HMI1\PRLB3960_1_IDC1_F5","ON","","1","U","","","U","","","U","","","","","","N","","N"
"D","PLC_J\HMI1\PRLB3960_1_IDC2_F12","ON","","1","U","","","U","","","U","","","","","","N","","N"
"D","PLC_J\HMI1\PRLB3960_1_IDC2_F13","ON","","1","U","","","U","","","U","","","","","","N","","N"
"D","PLC_J\HMI1\PRLB3960_1_IDC2_F19","ON","","1","U","","","U","","","U","","","","","","N","","N"
"D","PLC_J\HMI1\PRLB3960_1_IDC2_F21","ON","","1","U","","","U","","","U","","","","","","N","","N"
"D","PLC_J\HMI1\PRLB3960_1_IDC2_F5","ON","","1","U","","","U","","","U","","","","","","N","","N"
"D","PLC_J\HMI1\PRLB3960_2_FAULT_PD","ON","","1","U","","","U","","","U","","","","","","N","","N"
"D","PLC_J\HMI1\PRLB3960_2_FAULT_PL_LL","ON","","1","U","","","U","","","U","","","","","","N","","N"
"D","PLC_J\HMI1\PRLB3960_2_FAULT_PL_LR","ON","","1","U","","","U","","","U","","","","","","N","","N"
"D","PLC_J\HMI1\PRLB3960_2_FAULT_TE","ON","","1","U","","","U","","","U","","","","","","N","","N"
"D","PLC_J\HMI1\PRLB3960_2_IDC1_F12","ON","","1","U","","","U","","","U","","","","","","N","","N"
"D","PLC_J\HMI1\PRLB3960_2_IDC1_F13","ON","","1","U","","","U","","","U","","","","","","N","","N"
"D","PLC_J\HMI1\PRLB3960_2_IDC1_F19","ON","","1","U","","","U","","","U","","","","","","N","","N"
"D","PLC_J\HMI1\PRLB3960_2_IDC1_F21","ON","","1","U","","","U","","","U","","","","","","N","","N"
"D","PLC_J\HMI1\PRLB3960_2_IDC1_F5","ON","","1","U","","","U","","","U","","","","","","N","","N"
"D","PLC_J\HMI1\PRLB3960_2_IDC2_F12","ON","","1","U","","","U","","","U","","","","","","N","","N"
"D","PLC_J\HMI1\PRLB3960_2_IDC2_F13","ON","","1","U","","","U","","","U","","","","","","N","","N"
"D","PLC_J\HMI1\PRLB3960_2_IDC2_F19","ON","","1","U","","","U","","","U","","","","","","N","","N"
"D","PLC_J\HMI1\PRLB3960_2_IDC2_F21","ON","","1","U","","","U","","","U","","","","","","N","","N"
"D","PLC_J\HMI1\PRLB3960_2_IDC2_F5","ON","","1","U","","","U","","","U","","","","","","N","","N"
"D","PLC_J\HMI1\PRLB4510_1_FAULT_PD","ON","","1","U","","","U","","","U","","","","","","N","","N"
"D","PLC_J\HMI1\PRLB4510_1_FAULT_PL_LL","ON","","1","U","","","U","","","U","","","","","","N","","N"
"D","PLC_J\HMI1\PRLB4510_1_FAULT_PL_LR","ON","","1","U","","","U","","","U","","","","","","N","","N"
"D","PLC_J\HMI1\PRLB4510_1_FAULT_TE","ON","","1","U","","","U","","","U","","","","","","N","","N"
"D","PLC_J\HMI1\PRLB4510_1_IDC1_F12","ON","","1","U","","","U","","","U","","","","","","N","","N"
"D","PLC_J\HMI1\PRLB4510_1_IDC1_F13","ON","","1","U","","","U","","","U","","","","","","N","","N"
"D","PLC_J\HMI1\PRLB4510_1_IDC1_F19","ON","","1","U","","","U","","","U","","","","","","N","","N"
"D","PLC_J\HMI1\PRLB4510_1_IDC1_F21","ON","","1","U","","","U","","","U","","","","","","N","","N"
"D","PLC_J\HMI1\PRLB4510_1_IDC1_F5","ON","","1","U","","","U","","","U","","","","","","N","","N"
"D","PLC_J\HMI1\PRLB4510_1_IDC2_F12","ON","","1","U","","","U","","","U","","","","","","N","","N"
"D","PLC_J\HMI1\PRLB4510_1_IDC2_F13","ON","","1","U","","","U","","","U","","","","","","N","","N"
"D","PLC_J\HMI1\PRLB4510_1_IDC2_F19","ON","","1","U","","","U","","","U","","","","","","N","","N"
"D","PLC_J\HMI1\PRLB4510_1_IDC2_F21","ON","","1","U","","","U","","","U","","","","","","N","","N"
"D","PLC_J\HMI1\PRLB4510_1_IDC2_F5","ON","","1","U","","","U","","","U","","","","","","N","","N"
"D","PLC_J\HMI1\PRLB4510_2_FAULT_PD","ON","","1","U","","","U","","","U","","","","","","N","","N"
"D","PLC_J\HMI1\PRLB4510_2_FAULT_PL_LL","ON","","1","U","","","U","","","U","","","","","","N","","N"
"D","PLC_J\HMI1\PRLB4510_2_FAULT_PL_LM","ON","","1","U","","","U","","","U","","","","","","N","","N"
"D","PLC_J\HMI1\PRLB4510_2_FAULT_PL_LR","ON","","1","U","","","U","","","U","","","","","","N","","N"
"D","PLC_J\HMI1\PRLB4510_2_FAULT_TE","ON","","1","U","","","U","","","U","","","","","","N","","N"
"D","PLC_J\HMI1\PRLB4510_2_IDC1_F12","ON","","1","U","","","U","","","U","","","","","","N","","N"
"D","PLC_J\HMI1\PRLB4510_2_IDC1_F13","ON","","1","U","","","U","","","U","","","","","","N","","N"
"D","PLC_J\HMI1\PRLB4510_2_IDC1_F19","ON","","1","U","","","U","","","U","","","","","","N","","N"
"D","PLC_J\HMI1\PRLB4510_2_IDC1_F21","ON","","1","U","","","U","","","U","","","","","","N","","N"
"D","PLC_J\HMI1\PRLB4510_2_IDC1_F5","ON","","1","U","","","U","","","U","","","","","","N","","N"
"D","PLC_J\HMI1\PRLB4510_2_IDC2_F12","ON","","1","U","","","U","","","U","","","","","","N","","N"
"D","PLC_J\HMI1\PRLB4510_2_IDC2_F13","ON","","1","U","","","U","","","U","","","","","","N","","N"
"D","PLC_J\HMI1\PRLB4510_2_IDC2_F19","ON","","1","U","","","U","","","U","","","","","","N","","N"
"D","PLC_J\HMI1\PRLB4510_2_IDC2_F21","ON","","1","U","","","U","","","U","","","","","","N","","N"
"D","PLC_J\HMI1\PRLB4510_2_IDC2_F5","ON","","1","U","","","U","","","U","","","","","","N","","N"
"D","PLC_J\HMI1\PRLB4510_4_FAULT_PD","ON","","1","U","","","U","","","U","","","","","","N","","N"
"D","PLC_J\HMI1\PRLB4510_4_FAULT_PL_LL","ON","","1","U","","","U","","","U","","","","","","N","","N"
"D","PLC_J\HMI1\PRLB4510_4_FAULT_PL_LM","ON","","1","U","","","U","","","U","","","","","","N","","N"
"D","PLC_J\HMI1\PRLB4510_4_FAULT_PL_LR","ON","","1","U","","","U","","","U","","","","","","N","","N"
"D","PLC_J\HMI1\PRLB4510_4_FAULT_TE","ON","","1","U","","","U","","","U","","","","","","N","","N"
"D","PLC_J\HMI1\PRLB4510_4_IDC1_F12","ON","","1","U","","","U","","","U","","","","","","N","","N"
"D","PLC_J\HMI1\PRLB4510_4_IDC1_F13","ON","","1","U","","","U","","","U","","","","","","N","","N"
"D","PLC_J\HMI1\PRLB4510_4_IDC1_F19","ON","","1","U","","","U","","","U","","","","","","N","","N"
"D","PLC_J\HMI1\PRLB4510_4_IDC1_F21","ON","","1","U","","","U","","","U","","","","","","N","","N"
"D","PLC_J\HMI1\PRLB4510_4_IDC1_F5","ON","","1","U","","","U","","","U","","","","","","N","","N"
"D","PLC_J\HMI1\PRLB4510_4_IDC2_F12","ON","","1","U","","","U","","","U","","","","","","N","","N"
"D","PLC_J\HMI1\PRLB4510_4_IDC2_F13","ON","","1","U","","","U","","","U","","","","","","N","","N"
"D","PLC_J\HMI1\PRLB4510_4_IDC2_F19","ON","","1","U","","","U","","","U","","","","","","N","","N"
"D","PLC_J\HMI1\PRLB4510_4_IDC2_F21","ON","","1","U","","","U","","","U","","","","","","N","","N"
"D","PLC_J\HMI1\PRLB4510_4_IDC2_F5","ON","","1","U","","","U","","","U","","","","","","N","","N"
